(kicad_sch (version 20211123) (generator eeschema)

  (uuid f560eb55-064c-42d8-827b-fa9563c19f4d)

  (paper "A4")

  (title_block
    (title "Arduino Clone")
    (date "2022-06-22")
    (rev "1")
    (company "AGH University of Science and Technology")
    (comment 1 "Designed by Andrzej Dudek")
  )

  (lib_symbols
    (symbol "Connector_Generic:Conn_01x04" (pin_names (offset 1.016) hide) (in_bom yes) (on_board yes)
      (property "Reference" "J" (id 0) (at 0 5.08 0)
        (effects (font (size 1.27 1.27)))
      )
      (property "Value" "Conn_01x04" (id 1) (at 0 -7.62 0)
        (effects (font (size 1.27 1.27)))
      )
      (property "Footprint" "" (id 2) (at 0 0 0)
        (effects (font (size 1.27 1.27)) hide)
      )
      (property "Datasheet" "~" (id 3) (at 0 0 0)
        (effects (font (size 1.27 1.27)) hide)
      )
      (property "ki_keywords" "connector" (id 4) (at 0 0 0)
        (effects (font (size 1.27 1.27)) hide)
      )
      (property "ki_description" "Generic connector, single row, 01x04, script generated (kicad-library-utils/schlib/autogen/connector/)" (id 5) (at 0 0 0)
        (effects (font (size 1.27 1.27)) hide)
      )
      (property "ki_fp_filters" "Connector*:*_1x??_*" (id 6) (at 0 0 0)
        (effects (font (size 1.27 1.27)) hide)
      )
      (symbol "Conn_01x04_1_1"
        (rectangle (start -1.27 -4.953) (end 0 -5.207)
          (stroke (width 0.1524) (type default) (color 0 0 0 0))
          (fill (type none))
        )
        (rectangle (start -1.27 -2.413) (end 0 -2.667)
          (stroke (width 0.1524) (type default) (color 0 0 0 0))
          (fill (type none))
        )
        (rectangle (start -1.27 0.127) (end 0 -0.127)
          (stroke (width 0.1524) (type default) (color 0 0 0 0))
          (fill (type none))
        )
        (rectangle (start -1.27 2.667) (end 0 2.413)
          (stroke (width 0.1524) (type default) (color 0 0 0 0))
          (fill (type none))
        )
        (rectangle (start -1.27 3.81) (end 1.27 -6.35)
          (stroke (width 0.254) (type default) (color 0 0 0 0))
          (fill (type background))
        )
        (pin passive line (at -5.08 2.54 0) (length 3.81)
          (name "Pin_1" (effects (font (size 1.27 1.27))))
          (number "1" (effects (font (size 1.27 1.27))))
        )
        (pin passive line (at -5.08 0 0) (length 3.81)
          (name "Pin_2" (effects (font (size 1.27 1.27))))
          (number "2" (effects (font (size 1.27 1.27))))
        )
        (pin passive line (at -5.08 -2.54 0) (length 3.81)
          (name "Pin_3" (effects (font (size 1.27 1.27))))
          (number "3" (effects (font (size 1.27 1.27))))
        )
        (pin passive line (at -5.08 -5.08 0) (length 3.81)
          (name "Pin_4" (effects (font (size 1.27 1.27))))
          (number "4" (effects (font (size 1.27 1.27))))
        )
      )
    )
    (symbol "Connector_Generic:Conn_01x09" (pin_names (offset 1.016) hide) (in_bom yes) (on_board yes)
      (property "Reference" "J" (id 0) (at 0 12.7 0)
        (effects (font (size 1.27 1.27)))
      )
      (property "Value" "Conn_01x09" (id 1) (at 0 -12.7 0)
        (effects (font (size 1.27 1.27)))
      )
      (property "Footprint" "" (id 2) (at 0 0 0)
        (effects (font (size 1.27 1.27)) hide)
      )
      (property "Datasheet" "~" (id 3) (at 0 0 0)
        (effects (font (size 1.27 1.27)) hide)
      )
      (property "ki_keywords" "connector" (id 4) (at 0 0 0)
        (effects (font (size 1.27 1.27)) hide)
      )
      (property "ki_description" "Generic connector, single row, 01x09, script generated (kicad-library-utils/schlib/autogen/connector/)" (id 5) (at 0 0 0)
        (effects (font (size 1.27 1.27)) hide)
      )
      (property "ki_fp_filters" "Connector*:*_1x??_*" (id 6) (at 0 0 0)
        (effects (font (size 1.27 1.27)) hide)
      )
      (symbol "Conn_01x09_1_1"
        (rectangle (start -1.27 -10.033) (end 0 -10.287)
          (stroke (width 0.1524) (type default) (color 0 0 0 0))
          (fill (type none))
        )
        (rectangle (start -1.27 -7.493) (end 0 -7.747)
          (stroke (width 0.1524) (type default) (color 0 0 0 0))
          (fill (type none))
        )
        (rectangle (start -1.27 -4.953) (end 0 -5.207)
          (stroke (width 0.1524) (type default) (color 0 0 0 0))
          (fill (type none))
        )
        (rectangle (start -1.27 -2.413) (end 0 -2.667)
          (stroke (width 0.1524) (type default) (color 0 0 0 0))
          (fill (type none))
        )
        (rectangle (start -1.27 0.127) (end 0 -0.127)
          (stroke (width 0.1524) (type default) (color 0 0 0 0))
          (fill (type none))
        )
        (rectangle (start -1.27 2.667) (end 0 2.413)
          (stroke (width 0.1524) (type default) (color 0 0 0 0))
          (fill (type none))
        )
        (rectangle (start -1.27 5.207) (end 0 4.953)
          (stroke (width 0.1524) (type default) (color 0 0 0 0))
          (fill (type none))
        )
        (rectangle (start -1.27 7.747) (end 0 7.493)
          (stroke (width 0.1524) (type default) (color 0 0 0 0))
          (fill (type none))
        )
        (rectangle (start -1.27 10.287) (end 0 10.033)
          (stroke (width 0.1524) (type default) (color 0 0 0 0))
          (fill (type none))
        )
        (rectangle (start -1.27 11.43) (end 1.27 -11.43)
          (stroke (width 0.254) (type default) (color 0 0 0 0))
          (fill (type background))
        )
        (pin passive line (at -5.08 10.16 0) (length 3.81)
          (name "Pin_1" (effects (font (size 1.27 1.27))))
          (number "1" (effects (font (size 1.27 1.27))))
        )
        (pin passive line (at -5.08 7.62 0) (length 3.81)
          (name "Pin_2" (effects (font (size 1.27 1.27))))
          (number "2" (effects (font (size 1.27 1.27))))
        )
        (pin passive line (at -5.08 5.08 0) (length 3.81)
          (name "Pin_3" (effects (font (size 1.27 1.27))))
          (number "3" (effects (font (size 1.27 1.27))))
        )
        (pin passive line (at -5.08 2.54 0) (length 3.81)
          (name "Pin_4" (effects (font (size 1.27 1.27))))
          (number "4" (effects (font (size 1.27 1.27))))
        )
        (pin passive line (at -5.08 0 0) (length 3.81)
          (name "Pin_5" (effects (font (size 1.27 1.27))))
          (number "5" (effects (font (size 1.27 1.27))))
        )
        (pin passive line (at -5.08 -2.54 0) (length 3.81)
          (name "Pin_6" (effects (font (size 1.27 1.27))))
          (number "6" (effects (font (size 1.27 1.27))))
        )
        (pin passive line (at -5.08 -5.08 0) (length 3.81)
          (name "Pin_7" (effects (font (size 1.27 1.27))))
          (number "7" (effects (font (size 1.27 1.27))))
        )
        (pin passive line (at -5.08 -7.62 0) (length 3.81)
          (name "Pin_8" (effects (font (size 1.27 1.27))))
          (number "8" (effects (font (size 1.27 1.27))))
        )
        (pin passive line (at -5.08 -10.16 0) (length 3.81)
          (name "Pin_9" (effects (font (size 1.27 1.27))))
          (number "9" (effects (font (size 1.27 1.27))))
        )
      )
    )
    (symbol "Connector_Generic:Conn_02x03_Odd_Even" (pin_names (offset 1.016) hide) (in_bom yes) (on_board yes)
      (property "Reference" "J" (id 0) (at 1.27 5.08 0)
        (effects (font (size 1.27 1.27)))
      )
      (property "Value" "Conn_02x03_Odd_Even" (id 1) (at 1.27 -5.08 0)
        (effects (font (size 1.27 1.27)))
      )
      (property "Footprint" "" (id 2) (at 0 0 0)
        (effects (font (size 1.27 1.27)) hide)
      )
      (property "Datasheet" "~" (id 3) (at 0 0 0)
        (effects (font (size 1.27 1.27)) hide)
      )
      (property "ki_keywords" "connector" (id 4) (at 0 0 0)
        (effects (font (size 1.27 1.27)) hide)
      )
      (property "ki_description" "Generic connector, double row, 02x03, odd/even pin numbering scheme (row 1 odd numbers, row 2 even numbers), script generated (kicad-library-utils/schlib/autogen/connector/)" (id 5) (at 0 0 0)
        (effects (font (size 1.27 1.27)) hide)
      )
      (property "ki_fp_filters" "Connector*:*_2x??_*" (id 6) (at 0 0 0)
        (effects (font (size 1.27 1.27)) hide)
      )
      (symbol "Conn_02x03_Odd_Even_1_1"
        (rectangle (start -1.27 -2.413) (end 0 -2.667)
          (stroke (width 0.1524) (type default) (color 0 0 0 0))
          (fill (type none))
        )
        (rectangle (start -1.27 0.127) (end 0 -0.127)
          (stroke (width 0.1524) (type default) (color 0 0 0 0))
          (fill (type none))
        )
        (rectangle (start -1.27 2.667) (end 0 2.413)
          (stroke (width 0.1524) (type default) (color 0 0 0 0))
          (fill (type none))
        )
        (rectangle (start -1.27 3.81) (end 3.81 -3.81)
          (stroke (width 0.254) (type default) (color 0 0 0 0))
          (fill (type background))
        )
        (rectangle (start 3.81 -2.413) (end 2.54 -2.667)
          (stroke (width 0.1524) (type default) (color 0 0 0 0))
          (fill (type none))
        )
        (rectangle (start 3.81 0.127) (end 2.54 -0.127)
          (stroke (width 0.1524) (type default) (color 0 0 0 0))
          (fill (type none))
        )
        (rectangle (start 3.81 2.667) (end 2.54 2.413)
          (stroke (width 0.1524) (type default) (color 0 0 0 0))
          (fill (type none))
        )
        (pin passive line (at -5.08 2.54 0) (length 3.81)
          (name "Pin_1" (effects (font (size 1.27 1.27))))
          (number "1" (effects (font (size 1.27 1.27))))
        )
        (pin passive line (at 7.62 2.54 180) (length 3.81)
          (name "Pin_2" (effects (font (size 1.27 1.27))))
          (number "2" (effects (font (size 1.27 1.27))))
        )
        (pin passive line (at -5.08 0 0) (length 3.81)
          (name "Pin_3" (effects (font (size 1.27 1.27))))
          (number "3" (effects (font (size 1.27 1.27))))
        )
        (pin passive line (at 7.62 0 180) (length 3.81)
          (name "Pin_4" (effects (font (size 1.27 1.27))))
          (number "4" (effects (font (size 1.27 1.27))))
        )
        (pin passive line (at -5.08 -2.54 0) (length 3.81)
          (name "Pin_5" (effects (font (size 1.27 1.27))))
          (number "5" (effects (font (size 1.27 1.27))))
        )
        (pin passive line (at 7.62 -2.54 180) (length 3.81)
          (name "Pin_6" (effects (font (size 1.27 1.27))))
          (number "6" (effects (font (size 1.27 1.27))))
        )
      )
    )
  )


  (polyline (pts (xy 111.125 68.58) (xy 111.125 83.82))
    (stroke (width 0) (type default) (color 0 0 0 0))
    (uuid 00d34d0c-3a63-45d3-a1fe-2a2216e5bcff)
  )
  (polyline (pts (xy 111.125 102.87) (xy 139.065 102.87))
    (stroke (width 0) (type default) (color 0 0 0 0))
    (uuid 153a93eb-482e-483c-a88b-6caf8d7a5be4)
  )
  (polyline (pts (xy 139.065 130.81) (xy 111.125 130.81))
    (stroke (width 0) (type default) (color 0 0 0 0))
    (uuid 169fea4c-57ae-426b-b0f4-793c5fe4cac1)
  )
  (polyline (pts (xy 111.125 68.58) (xy 135.89 68.58))
    (stroke (width 0) (type default) (color 0 0 0 0))
    (uuid 2197a7ce-03a3-4ef8-919f-56799cd93676)
  )
  (polyline (pts (xy 177.165 107.95) (xy 177.165 126.365))
    (stroke (width 0) (type default) (color 0 0 0 0))
    (uuid 337a0a94-37f7-4aa0-83ba-69cc1d56ef74)
  )
  (polyline (pts (xy 180.34 68.58) (xy 180.34 83.82))
    (stroke (width 0) (type default) (color 0 0 0 0))
    (uuid 3fcdef97-3904-4122-b49b-592c4fbe73e3)
  )
  (polyline (pts (xy 111.125 102.87) (xy 111.125 130.81))
    (stroke (width 0) (type default) (color 0 0 0 0))
    (uuid 54dee93c-f4ca-4906-a944-14752f05ba49)
  )
  (polyline (pts (xy 135.89 68.58) (xy 135.89 83.82))
    (stroke (width 0) (type default) (color 0 0 0 0))
    (uuid 5cf07236-6bf1-465b-b5ec-21b0873db3a7)
  )
  (polyline (pts (xy 139.065 102.87) (xy 139.065 130.81))
    (stroke (width 0) (type default) (color 0 0 0 0))
    (uuid 78fbd785-c075-4dab-a8eb-fa96e350028d)
  )
  (polyline (pts (xy 180.34 83.82) (xy 151.765 83.82))
    (stroke (width 0) (type default) (color 0 0 0 0))
    (uuid 85586660-2501-4ce9-93b8-9ccbea01f21d)
  )
  (polyline (pts (xy 149.225 107.95) (xy 177.165 107.95))
    (stroke (width 0) (type default) (color 0 0 0 0))
    (uuid 99fa6fd4-17d0-4e28-ba44-e5de1b380567)
  )
  (polyline (pts (xy 151.765 68.58) (xy 151.765 83.82))
    (stroke (width 0) (type default) (color 0 0 0 0))
    (uuid 9f2e6ade-cc2f-4cac-8afa-c1bdf43cdd3b)
  )
  (polyline (pts (xy 151.765 68.58) (xy 180.34 68.58))
    (stroke (width 0) (type default) (color 0 0 0 0))
    (uuid a0d8b244-1dcd-4ce7-a739-47ff4316190c)
  )
  (polyline (pts (xy 177.165 126.365) (xy 149.225 126.365))
    (stroke (width 0) (type default) (color 0 0 0 0))
    (uuid c2d47c81-ec4b-4c60-9544-2710423e4ee7)
  )
  (polyline (pts (xy 135.89 83.82) (xy 111.125 83.82))
    (stroke (width 0) (type default) (color 0 0 0 0))
    (uuid e781bfd0-a148-48ac-9b70-b49c7544b007)
  )
  (polyline (pts (xy 149.225 107.95) (xy 149.225 126.365))
    (stroke (width 0) (type default) (color 0 0 0 0))
    (uuid fb7f0c25-5ffa-4611-b422-feedda90702b)
  )

  (text "Serial connector\n" (at 126.365 67.945 180)
    (effects (font (size 1.27 1.27)) (justify right bottom))
    (uuid 30560d8f-21d2-4349-acf8-032d19ff2bea)
  )
  (text "I2C connector\n" (at 165.1 67.945 180)
    (effects (font (size 1.27 1.27)) (justify right bottom))
    (uuid 8e9c244b-4f59-4f51-9efb-55a72e3aab6a)
  )
  (text "GPIO connector" (at 125.73 101.6 180)
    (effects (font (size 1.27 1.27)) (justify right bottom))
    (uuid 97366c52-016e-4706-9405-9d3bf1a6e677)
  )
  (text "SPI connector\n" (at 162.56 107.315 180)
    (effects (font (size 1.27 1.27)) (justify right bottom))
    (uuid b2986ed8-346b-4718-8c01-93612d36d93b)
  )

  (hierarchical_label "SCK" (shape bidirectional) (at 156.845 118.745 180)
    (effects (font (size 1.27 1.27)) (justify right))
    (uuid 0630542f-7482-492e-b7f6-76261cb6fd1c)
  )
  (hierarchical_label "TX" (shape output) (at 119.38 80.645 180)
    (effects (font (size 1.27 1.27)) (justify right))
    (uuid 0f55a5bf-b35c-4f46-85c7-a25a54992382)
  )
  (hierarchical_label "MISO" (shape output) (at 156.845 116.205 180)
    (effects (font (size 1.27 1.27)) (justify right))
    (uuid 1b60781d-962e-4993-bef1-3862a23382c6)
  )
  (hierarchical_label "GND" (shape input) (at 160.02 73.66 180)
    (effects (font (size 1.27 1.27)) (justify right))
    (uuid 327c14ed-b161-4e5b-9ba5-062508c42226)
  )
  (hierarchical_label "D7" (shape bidirectional) (at 118.745 120.015 180)
    (effects (font (size 1.27 1.27)) (justify right))
    (uuid 37488ac8-5c2d-4628-93df-a2624dbd445d)
  )
  (hierarchical_label "GND" (shape input) (at 118.745 125.095 180)
    (effects (font (size 1.27 1.27)) (justify right))
    (uuid 46e6ec16-cf27-45cf-bdd7-7e7e344857ca)
  )
  (hierarchical_label "RX" (shape input) (at 119.38 78.105 180)
    (effects (font (size 1.27 1.27)) (justify right))
    (uuid 50302318-f92f-4e64-ae22-277fa89453a5)
  )
  (hierarchical_label "D8" (shape bidirectional) (at 118.745 122.555 180)
    (effects (font (size 1.27 1.27)) (justify right))
    (uuid 52f8e184-0510-44fb-9d8f-fd1a9a90be37)
  )
  (hierarchical_label "Vcc" (shape input) (at 160.02 76.2 180)
    (effects (font (size 1.27 1.27)) (justify right))
    (uuid 62406998-f59c-45f0-8e81-7e2b56c9a521)
  )
  (hierarchical_label "Vcc" (shape input) (at 119.38 75.565 180)
    (effects (font (size 1.27 1.27)) (justify right))
    (uuid 77e98b6b-793a-4c59-97c4-164367b199b9)
  )
  (hierarchical_label "MOSI" (shape input) (at 169.545 118.745 0)
    (effects (font (size 1.27 1.27)) (justify left))
    (uuid 783089a7-718e-4ece-9366-0c0dc40b7c2c)
  )
  (hierarchical_label "D4" (shape bidirectional) (at 118.745 112.395 180)
    (effects (font (size 1.27 1.27)) (justify right))
    (uuid 801a0c03-c79f-4ada-8774-9a98074be459)
  )
  (hierarchical_label "GND" (shape input) (at 169.545 121.285 0)
    (effects (font (size 1.27 1.27)) (justify left))
    (uuid 8984addb-0d21-4d56-9a78-0db837464557)
  )
  (hierarchical_label "Vcc" (shape input) (at 169.545 116.205 0)
    (effects (font (size 1.27 1.27)) (justify left))
    (uuid a3b4e611-736e-4968-a169-aeed05fca415)
  )
  (hierarchical_label "D6" (shape bidirectional) (at 118.745 117.475 180)
    (effects (font (size 1.27 1.27)) (justify right))
    (uuid a5111b27-e549-4279-97a3-1d7cf848e00e)
  )
  (hierarchical_label "RESET" (shape output) (at 156.845 121.285 180)
    (effects (font (size 1.27 1.27)) (justify right))
    (uuid aac35f36-2de5-4710-a298-7526978add6b)
  )
  (hierarchical_label "SDA" (shape bidirectional) (at 160.02 78.74 180)
    (effects (font (size 1.27 1.27)) (justify right))
    (uuid b0cf9289-b4b9-4fad-8df0-bb2fa38159d3)
  )
  (hierarchical_label "Vcc" (shape input) (at 118.745 127.635 180)
    (effects (font (size 1.27 1.27)) (justify right))
    (uuid b93c60ef-028e-4b2a-a091-645ea1a114d5)
  )
  (hierarchical_label "D3" (shape bidirectional) (at 118.745 109.855 180)
    (effects (font (size 1.27 1.27)) (justify right))
    (uuid ca8caecb-aeeb-4a4a-934f-4e8f90a2eddc)
  )
  (hierarchical_label "D2" (shape bidirectional) (at 118.745 107.315 180)
    (effects (font (size 1.27 1.27)) (justify right))
    (uuid d815fb7c-6c31-4511-97d2-d93b1a1cd1f8)
  )
  (hierarchical_label "D5" (shape bidirectional) (at 118.745 114.935 180)
    (effects (font (size 1.27 1.27)) (justify right))
    (uuid e0eade35-3146-4b69-8f8b-4b429837a205)
  )
  (hierarchical_label "GND" (shape input) (at 119.38 73.025 180)
    (effects (font (size 1.27 1.27)) (justify right))
    (uuid f83827d1-e6eb-414b-8cef-187ef5ccda97)
  )
  (hierarchical_label "SCK" (shape bidirectional) (at 160.02 81.28 180)
    (effects (font (size 1.27 1.27)) (justify right))
    (uuid fd433505-e43f-478f-bb44-cde4e0efc010)
  )

  (symbol (lib_id "Connector_Generic:Conn_01x04") (at 124.46 75.565 0) (unit 1)
    (in_bom yes) (on_board yes) (fields_autoplaced)
    (uuid 0bdc96ee-2792-4385-a67f-f971955c2feb)
    (property "Reference" "J2" (id 0) (at 127.635 75.5649 0)
      (effects (font (size 1.27 1.27)) (justify left))
    )
    (property "Value" "Serial" (id 1) (at 127.635 78.1049 0)
      (effects (font (size 1.27 1.27)) (justify left))
    )
    (property "Footprint" "Connector_PinHeader_2.54mm:PinHeader_1x04_P2.54mm_Vertical" (id 2) (at 124.46 75.565 0)
      (effects (font (size 1.27 1.27)) hide)
    )
    (property "Datasheet" "~" (id 3) (at 124.46 75.565 0)
      (effects (font (size 1.27 1.27)) hide)
    )
    (pin "1" (uuid 3780e410-bac3-4da8-bb74-112a9aa10586))
    (pin "2" (uuid 8411cf4c-a01d-4a95-af35-11757622b3d9))
    (pin "3" (uuid 730706e6-0a99-46f5-9f3c-c3aaf7d6a818))
    (pin "4" (uuid 8f958996-ce7e-4b15-a8df-abf43781ec61))
  )

  (symbol (lib_id "Connector_Generic:Conn_02x03_Odd_Even") (at 161.925 118.745 0) (unit 1)
    (in_bom yes) (on_board yes) (fields_autoplaced)
    (uuid 1e1ce307-4c07-4bfd-a5bc-1c6500b8f43b)
    (property "Reference" "J3" (id 0) (at 163.195 109.855 0))
    (property "Value" "ICSP connector" (id 1) (at 163.195 112.395 0))
    (property "Footprint" "Connector_PinHeader_2.54mm:PinHeader_2x03_P2.54mm_Vertical" (id 2) (at 161.925 118.745 0)
      (effects (font (size 1.27 1.27)) hide)
    )
    (property "Datasheet" "~" (id 3) (at 161.925 118.745 0)
      (effects (font (size 1.27 1.27)) hide)
    )
    (pin "1" (uuid fdd80f35-da20-465a-bd8d-7975801365ff))
    (pin "2" (uuid 62672371-5432-487e-bd0d-911145699fdf))
    (pin "3" (uuid 5beaee0a-8c26-43be-8155-9446a0622f82))
    (pin "4" (uuid b1df6506-6eca-4f77-8304-9698dc5faf6a))
    (pin "5" (uuid 63ec7d88-ea78-4f21-ab7f-e3fc2448c8da))
    (pin "6" (uuid 905cf359-34b1-45b7-9ea4-6b757b721cfb))
  )

  (symbol (lib_id "Connector_Generic:Conn_01x04") (at 165.1 76.2 0) (unit 1)
    (in_bom yes) (on_board yes) (fields_autoplaced)
    (uuid a5e0c83c-c991-45ef-a353-10966b8fe6fd)
    (property "Reference" "J4" (id 0) (at 167.64 76.1999 0)
      (effects (font (size 1.27 1.27)) (justify left))
    )
    (property "Value" "I2C" (id 1) (at 167.64 78.7399 0)
      (effects (font (size 1.27 1.27)) (justify left))
    )
    (property "Footprint" "Connector_PinHeader_2.54mm:PinHeader_1x04_P2.54mm_Vertical" (id 2) (at 165.1 76.2 0)
      (effects (font (size 1.27 1.27)) hide)
    )
    (property "Datasheet" "~" (id 3) (at 165.1 76.2 0)
      (effects (font (size 1.27 1.27)) hide)
    )
    (pin "1" (uuid 8939ff23-53cd-4450-b7fb-7403d8cd3920))
    (pin "2" (uuid d5d1aa4d-5c33-4760-8c91-cf918f65bbab))
    (pin "3" (uuid e82c609c-2f94-424e-b959-5e293cbc70c3))
    (pin "4" (uuid 509ba0af-e1ef-485f-a000-35db333a29f3))
  )

  (symbol (lib_id "Connector_Generic:Conn_01x09") (at 123.825 117.475 0) (unit 1)
    (in_bom yes) (on_board yes) (fields_autoplaced)
    (uuid c809362c-aefc-4ae3-80d0-13a9a1034b84)
    (property "Reference" "J1" (id 0) (at 127 116.2049 0)
      (effects (font (size 1.27 1.27)) (justify left))
    )
    (property "Value" "Digital pins" (id 1) (at 127 118.7449 0)
      (effects (font (size 1.27 1.27)) (justify left))
    )
    (property "Footprint" "Connector_PinHeader_2.54mm:PinHeader_1x09_P2.54mm_Vertical" (id 2) (at 123.825 117.475 0)
      (effects (font (size 1.27 1.27)) hide)
    )
    (property "Datasheet" "~" (id 3) (at 123.825 117.475 0)
      (effects (font (size 1.27 1.27)) hide)
    )
    (pin "1" (uuid 9d31388e-212f-40e8-9c49-bc03afeb2e9a))
    (pin "2" (uuid 485e0493-c3fe-42e9-8521-34fe6e1e9214))
    (pin "3" (uuid b43a0b59-c042-4bf4-be9a-44fe89bd40f0))
    (pin "4" (uuid 992aa639-5bfe-449c-8a71-12a974846020))
    (pin "5" (uuid 8f6f67cb-b22b-4295-91ff-4b4e14bca7b5))
    (pin "6" (uuid 4e687af8-d4cb-454b-86da-1c2db46d9fcc))
    (pin "7" (uuid 5fcbbcd3-feed-4e67-a1e3-d54d96de2434))
    (pin "8" (uuid 9e2a8009-ff6c-49ed-9c09-692e25f704f8))
    (pin "9" (uuid 84d58423-8eb3-4e0d-a090-af60523a7970))
  )
)
